{
    "$schema": "http://json.schemastore.org/launchsettings.json",
    "iisSettings": {
        "windowsAuthentication": false,
        "anonymousAuthentication": true,
        "iisExpress": {
            "applicationUrl": "http://localhost:23277",
            "sslPort": 44316
        }
    },
    "profiles": {
        "http": {
            "commandName": "Project",
            "dotnetRunMessages": true,
            "launchBrowser": true,
            "inspectUri": "{wsProtocol}://{url.hostname}:{url.port}/_framework/debug/ws-proxy?browser={browserInspectUri}",
            "applicationUrl": "http://localhost:5262",
            "environmentVariables": {
                "ASPNETCORE_ENVIRONMENT": "Development"
            }
        },
        "https": {
            "commandName": "Project",
            "dotnetRunMessages": true,
            "launchBrowser": true,
            "inspectUri": "{wsProtocol}://{url.hostname}:{url.port}/_framework/debug/ws-proxy?browser={browserInspectUri}",
            "applicationUrl": "https://localhost:7080;http://localhost:5262",
            "environmentVariables": {
                "ASPNETCORE_ENVIRONMENT": "Development"
            }
        },
        "IIS Express": {
            "commandName": "IISExpress",
            "launchBrowser": true,
            "inspectUri": "{wsProtocol}://{url.hostname}:{url.port}/_framework/debug/ws-proxy?browser={browserInspectUri}",
            "environmentVariables": {
                "ASPNETCORE_ENVIRONMENT": "Development"
            }
        }
    }
}
