<svg width="64" height="64" viewBox="0 0 64 64" fill="none" xmlns="http://www.w3.org/2000/svg">
<circle cx="32" cy="32" r="32" fill="url(#paint0_linear_762_3532)" fill-opacity="0.65"/>
<path d="M8 32C8 18.7452 18.7452 8 32 8C45.2548 8 56 18.7452 56 32C56 45.2548 45.2548 56 32 56C18.7452 56 8 45.2548 8 32Z" fill="white"/>
<path d="M32.103 17.073L18.206 22.0287L20.3256 40.4038L32.103 46.9269L43.8804 40.4038L46 22.0287L32.103 17.073Z" fill="#DD0031"/>
<path d="M32.103 17.073V20.3868V20.3719V35.4929V46.9269L43.8803 40.4038L46 22.0287L32.103 17.073Z" fill="#C3002F"/>
<path d="M32.103 20.3718L23.4155 39.8515H26.6547L28.4011 35.4928H35.775L37.5215 39.8515H40.7607L32.103 20.3718ZM34.6406 32.806H29.5654L32.103 26.7009L34.6406 32.806Z" fill="white"/>
<defs>
<linearGradient id="paint0_linear_762_3532" x1="37.4154" y1="64" x2="-29.4395" y2="1.43999" gradientUnits="userSpaceOnUse">
<stop stop-color="#170C3E"/>
<stop offset="1" stop-color="#7B0D49"/>
</linearGradient>
</defs>
</svg>
