<svg width="56" height="56" viewBox="0 0 56 56" fill="none" xmlns="http://www.w3.org/2000/svg">
<path d="M1.88867 38.0725H39.6605V10.3733L1.88867 10.3754V38.0725Z" fill="#76E2F8"/>
<path d="M39.6603 10.3733L20.7744 10.3743V38.0725H39.6603V10.3733Z" fill="#73BCFF"/>
<path d="M40.9958 9.03784C40.6416 8.68368 40.1612 8.48462 39.6604 8.48462L1.88858 8.48681C0.845469 8.48681 0 9.3326 0 10.3754V38.0724C0 39.1155 0.845688 39.961 1.88858 39.961H13.8496V43.7382H11.961C10.9181 43.7382 10.0725 44.5838 10.0725 45.6267C10.0725 46.6698 10.9181 47.5153 11.961 47.5153H15.7382H25.8106H29.5878C30.6309 47.5153 31.4764 46.6698 31.4764 45.6267C31.4764 44.5838 30.6309 43.7382 29.5878 43.7382H27.6992V39.961H39.6603C40.7034 39.961 41.5488 39.1155 41.5488 38.0724V10.3732C41.5489 9.87248 41.35 9.39199 40.9958 9.03784ZM37.7718 36.1839H25.8106H15.7382H3.77716V12.2639L37.7717 12.262V36.1839H37.7718Z" fill="#07234F"/>
<path d="M40.9959 9.03784C40.6416 8.68368 40.1612 8.48462 39.6604 8.48462L20.7745 8.48571V12.263L37.7718 12.262V36.1838H25.8107H20.7744V47.5153H25.8107H29.5879C30.631 47.5153 31.4764 46.6698 31.4764 45.6267C31.4764 44.5838 30.631 43.7382 29.5879 43.7382H27.6993V39.961H39.6603C40.7034 39.961 41.5489 39.1155 41.5489 38.0724V10.3732C41.549 9.87248 41.35 9.39199 40.9959 9.03784Z" fill="#020813"/>
<path d="M51.5933 25.3396C51.5931 32.9886 45.3922 39.1892 37.7432 39.1892C30.0947 39.1892 23.8938 32.9886 23.8936 25.3396C23.8938 17.6907 30.0945 11.49 37.7432 11.49C45.3925 11.4898 51.5933 17.6907 51.5933 25.3396Z" fill="white"/>
<path d="M51.5936 25.3396C51.5936 17.6908 45.3927 11.49 37.7437 11.49V39.1892C45.3928 39.1891 51.5934 32.9884 51.5936 25.3396Z" fill="#D5E8FE"/>
<path d="M43.8089 26.3484L42.8149 26.3485L42.8151 25.5144L43.8489 24.4807C44.3407 23.9891 44.3405 23.192 43.8489 22.7002C43.4031 22.2544 42.707 22.2143 42.2143 22.5769C41.7478 21.7214 41.0417 21.0149 40.187 20.5474L40.59 20.1444C41.0818 19.6527 41.0815 18.8555 40.59 18.3636C40.0983 17.872 39.3012 17.872 38.8093 18.3635L37.9191 19.2539H37.611L36.7211 18.3637C36.2298 17.8721 35.4325 17.8719 34.9407 18.3636C34.4486 18.8553 34.4486 19.6524 34.9405 20.1444L35.3435 20.5474C34.4862 21.0163 33.7788 21.7254 33.312 22.5842C32.8191 22.2136 32.1164 22.2515 31.6675 22.7004C31.176 23.192 31.176 23.9893 31.6677 24.481L32.7013 25.5147L32.7015 26.3486L31.6778 26.3488C30.9824 26.3486 30.4188 26.9126 30.4185 27.608C30.4187 28.3031 30.9824 28.8669 31.6775 28.8669H32.8553C32.9448 29.2212 33.0725 29.5601 33.2323 29.8805L32.5905 30.5225C32.099 31.0141 32.0988 31.8114 32.5905 32.3032C32.8364 32.549 33.1586 32.6721 33.481 32.6721C33.8032 32.6721 34.1252 32.549 34.3712 32.3034L34.8869 31.7875C35.703 32.3527 36.6923 32.685 37.7578 32.685C38.8162 32.685 39.7987 32.3577 40.6117 31.8L41.1148 32.3032C41.3607 32.5491 41.6829 32.6721 42.0052 32.6721C42.3271 32.6721 42.6494 32.5491 42.8954 32.3032C43.3872 31.8116 43.3869 31.0145 42.8954 30.5227L42.2733 29.9005C42.4381 29.5744 42.5694 29.2288 42.6606 28.8672L43.8085 28.8671C44.5038 28.8672 45.0673 28.3036 45.0675 27.6081C45.0677 26.9121 44.5041 26.3484 43.8089 26.3484Z" fill="#FC6990"/>
<path d="M55.4465 41.4735L49.6239 35.6508C52.0256 32.887 53.4817 29.2803 53.4817 25.3396C53.482 16.6612 46.4217 9.60107 37.7436 9.60107C29.0654 9.60118 22.0054 16.6612 22.0054 25.3394C22.0052 34.0175 29.0654 41.0776 37.7436 41.0776C41.1216 41.0776 44.254 40.0077 46.8208 38.1892L52.7757 44.1443C53.1446 44.5131 53.6279 44.6974 54.1112 44.6974C54.5944 44.6974 55.0776 44.5131 55.4464 44.1443C56.1842 43.4069 56.1842 42.2112 55.4465 41.4735ZM25.7821 25.3397C25.7823 18.7444 31.148 13.3787 37.7433 13.3787C44.3386 13.3787 49.7047 18.7444 49.7047 25.3397C49.7047 31.935 44.3388 37.3007 37.7431 37.3007C31.148 37.3007 25.7821 31.9351 25.7821 25.3397Z" fill="#07234F"/>
<path d="M37.7437 9.60132C33.1135 9.60143 28.9445 11.6115 26.062 14.8044L28.7383 17.4808C30.9326 14.9697 34.1549 13.3787 37.7437 13.3787C44.339 13.3787 49.7049 18.7444 49.7049 25.3397C49.7049 28.9285 48.1139 32.1508 45.6027 34.3451L55.4234 44.1658C55.4309 44.1585 55.4392 44.1522 55.4467 44.1447C56.1844 43.4072 56.1844 42.2115 55.4467 41.4737L49.624 35.6511C52.0258 32.8873 53.4819 29.2805 53.4819 25.3398C53.4822 16.6615 46.4218 9.60132 37.7437 9.60132Z" fill="#020813"/>
<path d="M43.8093 26.3484L42.8153 26.3485L42.8155 25.5144L43.8493 24.4807C44.341 23.9891 44.3408 23.192 43.8493 22.7002C43.4035 22.2544 42.7073 22.2143 42.2147 22.5769C41.7482 21.7214 41.0421 21.0149 40.1873 20.5474L40.5904 20.1444C41.0821 19.6527 41.0819 18.8555 40.5904 18.3636C40.0986 17.872 39.3016 17.872 38.8096 18.3635L37.9194 19.2539H37.7437V32.6843C37.7486 32.6843 37.7535 32.6845 37.7584 32.6845C38.8167 32.6845 39.7992 32.3573 40.6122 31.7996L41.1154 32.3028C41.3612 32.5487 41.6834 32.6716 42.0058 32.6716C42.3277 32.6716 42.65 32.5487 42.896 32.3028C43.3877 31.8112 43.3875 31.014 42.896 30.5223L42.2739 29.9001C42.4387 29.574 42.5699 29.2284 42.6612 28.8668L43.809 28.8667C44.5043 28.8668 45.0678 28.3032 45.0681 27.6077C45.0681 26.9121 44.5044 26.3484 43.8093 26.3484Z" fill="#FA255D"/>
</svg>
